<?xml version="1.0" encoding="utf-8"?>
<!-- Generator: Adobe Illustrator 20.0.0, SVG Export Plug-In . SVG Version: 6.00 Build 0)  -->
<svg version="1.1" id="Layer_1" xmlns="http://www.w3.org/2000/svg" xmlns:xlink="http://www.w3.org/1999/xlink" x="0px" y="0px"
	 viewBox="0 0 486 486" style="enable-background:new 0 0 486 486;" xml:space="preserve">
<style type="text/css">
	.st0{stroke:#231F20;stroke-linecap:round;stroke-miterlimit:10;}
	.st1{fill:#333333;stroke:#000000;stroke-linecap:round;stroke-miterlimit:10;}
	.st2{fill:#B3B3B3;stroke:#231F20;stroke-linecap:round;stroke-miterlimit:10;}
	.st3{fill:#39B54A;}
</style>
<ellipse class="st0" cx="241.8" cy="244.1" rx="231.3" ry="232.4"/>
<ellipse class="st1" cx="242.9" cy="243.5" rx="77.4" ry="79"/>
<ellipse class="st2" cx="242.3" cy="243.5" rx="6.4" ry="6.6"/>
<g>
	<g>
		<path class="st3" d="M201.7,208.1c-3.3,3.7-4.9,5.8-7.4,10.5c-1.1-0.6-1.7-0.9-2.8-1.5c2.9-5.3,4.6-7.7,8.4-11.8
			c-0.4-0.4-0.6-0.5-1-0.9c-3.9,4.2-5.7,6.6-8.6,12.1c-1.1-0.6-1.7-0.9-2.8-1.5c3.1-5.7,5-8.3,9.1-12.7c-0.4-0.4-0.6-0.5-1-0.9
			c-4.7,5-6.7,7.9-10.1,14.5c3.2,1.6,4.8,2.5,8,4.1c-0.8,1.6-1.2,2.4-1.9,4.1c-4.5-1.9-6.7-2.8-11.2-4.6c3.7-9,6.3-12.9,12.2-19.5
			c2.3-2.5,5.2-3,6.5-1.6c0.7,0.8,0.8,2,0.4,3.2c1.3-0.4,2.5-0.2,3.3,0.6C204.1,203.4,203.5,206,201.7,208.1z"/>
		<path class="st3" d="M227.7,192.3c-1.9,0.5-2.9,0.8-4.7,1.5c-1.1-0.6-1.7-0.9-2.9-1.4c-4.2,1.7-6.3,2.8-10.2,5.4
			c0.3-1.7,0.5-2.6,0.9-4.3c2-1.2,3.1-1.8,5.2-2.8c-2.1-0.7-3.1-1.1-5.3-1.6c-1.6,5.2-2.1,7.8-2.5,12.9c-1.6,1.3-2.4,1.9-3.9,3.4
			c0-6,0.4-9.2,2.1-15.5c0.4-1.3,1.2-2.6,2.8-3.5c1.5-0.8,3.2-0.9,4.4-0.5C219.8,187.8,222.7,189.1,227.7,192.3z"/>
		<path class="st3" d="M243.7,190.5c-6.5-0.2-9.8,0.2-16.1,1.8c-0.3-1.2-0.5-1.8-0.8-3.1c7-1.8,10.7-2.2,17.8-1.9
			c0-0.5,0-0.8,0.1-1.3c-5.6-0.3-8.5-0.1-14,1c-2.8,0.5-5.4-0.5-6-2.5c-0.6-2,1.4-4.4,4.5-5c7.8-1.5,11.9-1.6,19.7-0.8
			c-0.1,1.3-0.2,1.9-0.3,3.2c-7.9-0.8-11.9-0.6-19.7,1c0.1,0.5,0.2,0.8,0.3,1.3c5.8-1.2,8.8-1.4,14.8-1.2c2.9,0.1,5.1,2.1,4.9,4.2
			S246.3,190.6,243.7,190.5z"/>
		<path class="st3" d="M269.2,197.6c-5.7-3.3-8.8-4.4-15.2-5.9c-2.5-0.6-4.4-2.5-4.1-4.6c0.2-1.8,0.4-2.7,0.6-4.4
			c0.3-2.1,3.1-3.5,6.2-2.8c7.8,1.7,11.6,3.2,18.6,7.2c-0.6,1.1-1,1.6-1.6,2.7c-7-4-10.8-5.4-18.6-7c-0.5,2.3-0.7,3.4-1.2,5.7
			c7.1,1.5,10.5,2.7,16.9,6.4C270.1,196,269.8,196.5,269.2,197.6z M271.4,193.7c-6-3.4-9.3-4.7-15.9-6.2c0.3-1.2,0.4-1.9,0.7-3.1
			c7,1.6,10.4,2.9,16.8,6.6C272.4,192.1,272.1,192.6,271.4,193.7z"/>
		<path class="st3" d="M277.9,203.8c-1.2-1.1-1.8-1.6-3.1-2.5c2.2-3,3.4-4.4,5.6-7.4c-1.7-0.1-2.5-0.1-4.2-0.1
			c-0.6-1.5-0.9-2.2-1.5-3.6c1.7-0.1,2.5-0.1,4.3-0.1c1,0,2.3,0.4,3.3,1.2c2.2,1.6,2.9,4.2,1.7,5.5
			C281.5,199.7,280.3,201.1,277.9,203.8z"/>
		<path class="st3" d="M289.8,219.1c-2.5-4.7-3.9-6.7-7.2-10.4c-1.8-2.1-2.3-4.8-0.8-6.4c1.2-1.3,1.8-2,3.1-3.3
			c1.4-1.5,4.6-1,6.8,1.6c5.3,6.1,7.7,9.7,11.2,17.9c-1.2,0.5-1.7,0.8-2.9,1.3c-3.5-8.2-5.9-11.8-11.3-17.8
			c-1.7,1.6-2.6,2.4-4.3,3.9c4,4.4,5.7,6.9,8.6,12.6c0.5-0.2,0.7-0.4,1.2-0.6c-2.7-5.2-4.3-7.6-7.8-11.8c1-0.8,1.4-1.3,2.4-2.1
			c3.5,4.1,5.1,6.4,7.8,11.5c1.6,3,1,6.3-0.9,7.1C293.7,223.3,291.2,221.7,289.8,219.1z"/>
	</g>
</g>
<g>
	<g>
		<path class="st3" d="M193.7,274.6c-0.9-1.4-1.4-2.2-2.3-3.7c1-0.6,1.4-0.8,2.4-1.4c-2.8-4.9-3.9-7.7-5.5-13.7
			c-2.8,0.8-4.2,1.1-7,1.9c-0.5-2-0.8-3-1.2-5.1c3.8-0.7,5.8-1.1,9.6-1.8c1.4,7.4,2.7,10.8,5.9,16.7c1.3,2.3,1.3,4.9-0.1,5.8
			C194.9,273.9,194.5,274.1,193.7,274.6z"/>
		<path class="st3" d="M208,294.7c-6.1-3.9-8.9-6.3-13.8-12c-1.9-2.3-2.2-5.1-0.8-6.1c1.2-0.8,1.8-1.3,3-2.1c1.4-1,3.7,0,5.4,1.9
			c2.9,3.5,4.6,5,8.1,7.7c2,1.5,2.9,3.7,1.9,5.1c-0.7,1-1,1.5-1.7,2.6c-5.6-3.6-8.2-5.8-12.7-11c0.8-0.7,1.2-1,1.9-1.7
			c3.2,3.8,5,5.4,8.9,8.3c0.3-0.3,0.4-0.5,0.6-0.8c-4.2-3.1-6.2-5-9.6-9.2c-1.5,1.2-2.2,1.8-3.6,3c4.8,5.9,7.7,8.3,13.8,12.3
			C208.9,293.4,208.6,293.9,208,294.7z"/>
		<path class="st3" d="M231.3,303.9c-7.1-1.3-10.5-2.5-17-5.7c-2.6-1.3-3.8-3.7-2.9-5.1c0.8-1.2,1.2-1.8,1.9-3
			c0.9-1.4,3.3-1.6,5.5-0.5c5.5,2.7,8.5,3.7,14.5,4.8c-0.2,1-0.3,1.5-0.5,2.5c-6.6-1.3-9.9-2.3-15.9-5.4c-0.9,1.6-1.3,2.5-2.2,4.1
			c6.5,3.3,10,4.5,17.1,5.8C231.6,302.4,231.5,302.9,231.3,303.9z"/>
		<path class="st3" d="M255.2,301.2c0.3,1.7-1.8,3.4-4.6,3.6c-5.1,0.4-7.7,0.4-12.8,0c-2.9-0.3-4.9-2-4.6-3.7
			c0.3-1.4,0.4-2.1,0.7-3.5c0.3-1.7,2.5-2.6,4.9-2.4c4.3,0.4,6.5,0.4,10.9,0c2.4-0.2,4.6,0.8,4.9,2.5
			C254.8,299.1,255,299.8,255.2,301.2z M251.2,302.2c-0.2-1.8-0.3-2.8-0.5-4.6c-5.2,0.5-7.8,0.5-12.9,0c-0.2,1.8-0.3,2.8-0.5,4.6
			C242.8,302.8,245.6,302.8,251.2,302.2z"/>
		<path class="st3" d="M276.8,292c-1.4,0.8-2.1,1.2-3.5,1.9c-0.5-1-0.8-1.5-1.3-2.4c-4.6,2.4-7.1,3.3-12.1,4.6
			c0.8,2.8,1.2,4.1,1.9,6.9c-1.7,0.4-2.5,0.6-4.2,0.9c-0.8-3.8-1.2-5.7-2-9.5c6-1.1,9-2.1,14.5-4.8c2.2-1.1,4.6-0.9,5.5,0.5
			C276.1,290.8,276.4,291.2,276.8,292z"/>
		<path class="st3" d="M297.7,278.8c-4.4,6.2-7.1,8.9-12.9,13.2c-2.3,1.7-5.1,1.8-6,0.4c-0.8-1.2-1.2-1.8-2-3c-0.9-1.4,0-3.6,2-5.1
			c3.4-2.5,5-4,7.8-7.2c0.8,0.7,1.2,1,1.9,1.7c-3.2,3.7-5,5.3-8.8,8.1c1.1,1.5,1.7,2.2,2.8,3.7c4.6-3.3,6.7-5.3,10.5-9.8
			c-3.3-2.8-5-4.2-8.4-6.9c0.9-1.1,1.4-1.7,2.2-2.8C291.1,274.1,293.3,275.6,297.7,278.8z"/>
		<path class="st3" d="M307.2,258.8c-2.3,8.2-4.1,11.9-8.3,18.3c-0.8-0.6-1.3-0.9-2.1-1.4c4.3-6.5,6-10.2,8.3-18.6
			c-0.4-0.1-0.6-0.2-1-0.3c-1.7,6.3-2.9,9.2-5.8,14.4c-1.5,2.6-3.9,3.7-5.3,2.7c-1.4-1-1.3-3.5,0-5.8c3.3-5.8,4.5-9.1,6.1-16.5
			c1,0.2,1.5,0.3,2.5,0.5c-1.7,8.1-3.1,11.7-6.8,18c0.4,0.2,0.5,0.3,0.9,0.5c2.9-4.9,4-7.7,5.7-13.6c0.8-3,2.7-5.3,4.3-5
			C307.3,252.4,308.1,255.5,307.2,258.8z"/>
	</g>
</g>
</svg>
